<svg width="33" height="33" viewBox="0 0 33 33" fill="none" xmlns="http://www.w3.org/2000/svg">
<path d="M4.35938 20.9913H29.3594V24.9913C29.3594 27.2004 27.5685 28.9913 25.3594 28.9913H8.35938C6.15024 28.9913 4.35938 27.2004 4.35938 24.9913V20.9913Z" stroke="#A989F5" stroke-width="1.28"/>
<path d="M18.8594 22.4913L20.8594 24.4913L22.8594 22.4913H18.8594Z" fill="white"/>
<path d="M2.35938 18.4913C2.35938 17.1106 3.47866 15.9913 4.85937 15.9913H28.8594C30.2401 15.9913 31.3594 17.1106 31.3594 18.4913V18.4913C31.3594 19.872 30.2401 20.9913 28.8594 20.9913H4.85938C3.47866 20.9913 2.35938 19.872 2.35938 18.4913V18.4913Z" stroke="#A989F5" stroke-width="1.28"/>
<path d="M4.35938 13.9913C4.35938 8.46846 8.83653 3.9913 14.3594 3.9913H19.3594C24.8822 3.9913 29.3594 8.46845 29.3594 13.9913V15.9913H4.35938V13.9913Z" stroke="#A989F5" stroke-width="1.28"/>
</svg>
