<svg width="85" height="40" viewBox="0 0 85 40" fill="none" xmlns="http://www.w3.org/2000/svg">
<g clip-path="url(#clip0_21_2384)">
<path d="M5.20693 15.742C6.71666 15.0101 8.38785 14.6627 10.0684 14.7315C13.319 14.8423 15.1047 16.4692 15.1755 19.6611C15.2545 23.005 15.2296 26.3201 15.217 29.6599C15.217 31.0198 14.8549 31.3318 13.4939 31.3318H11.6084C10.4054 31.3318 10.0309 30.9703 10.0059 29.775V20.8236C10.0059 19.4393 9.34404 18.8682 7.92482 18.9257C7.67772 18.9299 7.43147 18.9532 7.18802 18.9956C5.32758 19.3694 5.21929 19.5008 5.21929 21.374V29.3518C5.21929 31.0566 4.9238 31.3441 3.22144 31.3441H1.33611C0.449549 31.3441 0.0583113 30.9334 0 30.0297V8.9514C0 7.4109 0.33302 7.08647 1.86886 7.08647H3.53369C4.82402 7.08647 5.21938 7.44378 5.24446 8.7296C5.2819 10.6563 5.24446 12.5828 5.24446 14.5054C5.20693 14.8588 5.20693 15.2408 5.20693 15.742Z" fill="white"/>
<path d="M32.9939 23.5514C32.8815 24.4386 32.8148 25.5764 32.5776 26.6857C32.2022 29.1846 30.2368 31.1594 27.7119 31.5743C25.9864 31.9401 24.1997 31.9177 22.4842 31.5085C20.3105 31.0951 18.5785 29.4721 18.0473 27.3511C17.2613 24.6758 17.2613 21.8353 18.0473 19.1598C18.8797 16.3499 21.0565 14.8423 24.2449 14.7353C25.3952 14.6748 26.5487 14.7451 27.6828 14.9448C30.6921 15.5406 32.3985 17.5535 32.7857 20.8398C32.8815 21.674 32.9105 22.4791 32.9939 23.5514ZM27.7411 23.6171C27.6828 22.7009 27.6496 22.0765 27.5912 21.4602C27.5547 21.1372 27.4876 20.8183 27.3914 20.5072C27.2004 19.4706 26.2456 18.7449 25.1814 18.8271C24.1434 18.7496 23.2142 19.4593 23.0294 20.4702C22.5574 22.3172 22.5574 24.2512 23.0294 26.0982C23.2236 27.1267 24.1907 27.8319 25.2437 27.7126C26.2414 27.7806 27.1339 27.104 27.3248 26.1353C27.5094 25.3025 27.6483 24.4604 27.7411 23.6129V23.6171Z" fill="white"/>
<path d="M66.2874 21.0619C66.5164 19.3448 66.1292 18.8149 64.452 18.8928C63.085 19.0067 61.7268 19.2056 60.3854 19.4884C59.2491 19.6898 58.4167 19.4063 58.2586 18.5355C58.0005 17.0978 58.1004 15.8653 59.2699 15.5203C61.9719 14.643 64.8634 14.501 67.6402 15.1094C70.1624 15.7049 71.386 17.3522 71.386 20.039V29.553C71.386 30.272 71.386 31.0115 70.5205 31.2908C69.5566 31.6377 68.4758 31.3442 67.8275 30.5595L67.5611 30.1776C66.0851 31.343 64.2246 31.9283 62.3374 31.8207C58.2377 31.6729 55.8818 27.8154 57.6632 24.1471C58.4957 22.4012 60.1607 21.8506 61.8798 21.5796C63.3614 21.3617 64.8307 21.2261 66.2874 21.0619ZM66.3666 23.8635C65.3717 24.0114 64.4977 24.0934 63.6487 24.2744C62.7632 24.3878 62.0946 25.1227 62.0752 26.0038C61.8881 26.8891 62.3627 27.7812 63.2074 28.1316C64.0399 28.4521 65.8088 28.1316 66.2167 27.5731C66.295 27.4649 66.3384 27.3361 66.3414 27.2033C66.3666 26.1229 66.3666 25.0465 66.3666 23.8512V23.8635Z" fill="white"/>
<path d="M36.5608 15.3065V13.1827C36.4851 12.5317 36.9111 11.9265 37.5557 11.7695C38.4044 11.4887 39.2672 11.2501 40.1404 11.0547C40.7708 10.848 41.4517 11.185 41.6612 11.8072C41.7171 11.9735 41.7351 12.1501 41.7138 12.3241C41.7429 13.2402 41.7138 14.1481 41.7138 15.1668H44.1819C45.3848 15.1957 45.7969 15.5775 45.8469 16.81C45.9135 19.3076 45.7762 19.4475 43.2747 19.4475H41.822C41.7832 19.6703 41.7568 19.8953 41.7429 20.121V25.3918C41.7429 27.0349 42.2424 27.5361 43.8614 27.6511C45.2808 27.7538 45.668 28.062 45.668 29.204C45.7179 31.0237 45.3431 31.64 43.8614 31.7263C42.6861 31.8136 41.5046 31.7543 40.3443 31.5497C37.9345 31.069 36.6359 29.5242 36.5567 27.0103C36.4859 24.8166 36.5276 22.6188 36.5194 20.4374V19.4515H35.0626C34.3768 19.5059 33.7756 19.0026 33.7183 18.3259C33.7183 18.2875 33.7183 18.2506 33.7183 18.215C33.5183 16.5348 33.8223 16.087 35.4414 15.635L36.5608 15.3065Z" fill="white"/>
<path d="M54.6625 25.5233C54.6625 28.3699 54.7166 31.2168 54.6625 34.0636C54.6484 37.3465 51.9405 39.9968 48.6144 39.9827C48.298 39.9813 47.9821 39.9556 47.6699 39.9052C46.5087 39.7615 46.0965 39.3097 46.08 38.1224V37.0665C46.1299 36.0724 46.4422 35.7273 47.4411 35.5465C48.981 35.2633 49.4848 34.692 49.4888 33.1024V16.9128C49.4888 15.5406 49.8428 15.175 51.2371 15.13H53.1308C54.2505 15.1791 54.6707 15.5818 54.679 16.6949V25.4697L54.6625 25.5233Z" fill="white"/>
<path d="M77.9124 16.2924C79.2759 15.3268 80.9008 14.7846 82.5784 14.7354C84.2432 14.7354 84.6261 15.0806 84.6219 16.7073V17.4386C84.6219 18.4903 84.1808 18.8641 83.1402 18.9709C82.1607 19.0889 81.1883 19.2576 80.2268 19.4762C79.5817 19.6119 79.336 19.998 79.3485 20.7086C79.3983 23.6787 79.3485 26.6241 79.3485 29.5779C79.3485 31.028 79.0278 31.3319 77.5419 31.3607H75.3984C74.7822 31.4104 74.2418 30.9577 74.1914 30.3493C74.1854 30.2758 74.1867 30.2018 74.1957 30.1285V16.4649C74.148 15.8565 74.6091 15.325 75.2256 15.2779C75.2264 15.2777 75.2271 15.2777 75.2278 15.2777H75.2778C76.3142 15.1052 77.4045 14.945 77.9124 16.2924Z" fill="white"/>
<path d="M54.1047 12.2379C55.0454 8.90217 54.7083 7.22199 53.0557 6.89737C53.3097 8.03122 53.5926 9.19381 52.3858 9.97838C51.7529 10.3892 51.2536 10.2331 50.1339 9.38272C49.6177 10.4303 49.7926 11.4737 50.0298 12.591C48.4233 12.3158 47.1579 11.6585 46.5712 10.1263C45.9658 8.73423 46.2973 7.11769 47.4036 6.06753C47.79 5.68028 48.2077 5.32443 48.6521 5.00351C50.4587 3.6643 50.8082 2.36619 49.8551 0.353254C49.8125 0.237965 49.7778 0.12 49.7512 0C51.7597 0.301247 53.6592 1.09663 55.2743 2.31289C58.7957 5.15557 58.3712 10.2618 54.4836 12.1393C54.3521 12.1493 54.2236 12.1825 54.1047 12.2379Z" fill="white"/>
</g>
<defs>
<clipPath id="clip0_21_2384">
<rect width="84.7059" height="40" fill="white"/>
</clipPath>
</defs>
</svg>
